{
  "id": "ascendant",
  "title": "Ascendant",
  "description": "FVTT system for Ascendant",
  "version": "0.0.3",
  "compatibility": {
    "minimum": "11",
    "verified": "12"
  },
  "authors": [
    {
      "name": "JasonMMakay"
    }
  ],
  "scripts": [],
  "esmodules": ["module/simple.js"],
  "styles": ["styles/simple.css"],
  "packs": [],
  "languages": [
    {
      "lang": "en",
      "name": "English",
      "path": "lang/en.json"
    }
  ],
  "grid": {
    "distance": 5,
    "units": "ft"
  },
  "primaryTokenAttribute": "health",
  "secondaryTokenAttribute": "determination",
  "url": "https://gitlab.com/jasonmmakay/fvtt-ascendant",
  "manifest": "https://gitlab.com/jasonmmakay/fvtt-ascendant/-/raw/main/releases/0.0.3/system.json",
  "download": "https://gitlab.com/jasonmmakay/fvtt-ascendant/-/raw/main/releases/0.0.3/ascendant.zip",
  "license": "LICENSE.txt"
}

